{
  "type": "service_account",
  "project_id": "serious-arcana-325723",
  "private_key_id": "15cbbb1b8c122dacb84d42919546e3b02a63c9c4",
  "private_key": "-----BEGIN PRIVATE KEY-----\nMIIEvAIBADANBgkqhkiG9w0BAQEFAASCBKYwggSiAgEAAoIBAQDjFoOGb61W0kFz\nPqeBs/qdE/1eITBb/unbQ0mo0+/eV55O6apIS+mFRLUGG49FaVvYvLMVGjXrFAiI\nnWGCc3G5MokSXi1u//nsRo3+e1lyD1Dv9ux9bFCIFeO6ous984ylsexnoWdE2iV3\nAI2r5Xb0a4L8bEd6AqR8Dc6RDEQfQknt3DN/F0xBUSyxOnEES8YlypsjUYyuoonz\nV7sCZ3uHs6rfi2XSKrFSJ1ewJfol6ve91m0wcIFDDCK14UvDI6jgnb94hZTUnR9Z\nyjuoMo3Rdqve1RHVdKQcsg8Ug4YJUGB/zUm5MMB5zA8aDNX/4AYQ7j6L5aOg2CZn\nCfruL86BAgMBAAECggEAF2Hz6g2pbLqv8uoSfRL8rQboEbSw0jrbIUYk7rA1Tzt4\nuV8VtxBbURXO3qb2J4Cz7Isa6i3YO8aaIwMIOCf4n51aADJX/Z7NllbPe9LUq3TI\nnI+G21qh/Nk60+FpqpKKOsIpeaQ6H3H85euAgEuGO6BZt5x99vdlsMEKh49FRm3Z\nyU25S6VE24NPa5Al5vcC49tFyXqM/hyjoKcElof0O1IwN+MnnXNzMGvT+PhSyrcv\nFIvBjdqheCORE0aSaIcIrt+sjgHzFwE+ZEfwqGJdwgluNofb2TK9eaq7md/qHZtB\nzNHWiNIrY9yGA266cV8BOxxYbuaF7CDfgvudUiGbxwKBgQD0fvgErUW58yTuU2yv\n8gsPDQ1VVBhjifvZFKojedwTMfIaYcYt7VBL8sPiCm1OkzxzUBEgCsDmr5o2H8B3\nfGOi9l6psc1Lp2HQEF+ivt0pCnvRXS8C+vpougsaCrpcsSHHg/jsKqh+qWEpXFaa\n3YSgL1OqUusnNCOEJh9h0DIlzwKBgQDtxdwZRTy3SFFl+6QiFSVC3xHyffHatc2E\nD/oegJbI52PXaqFK6js0NLDNjAPBSjyw6bbusCpG/gGrR2Rv7me2VAy2/FYT8PUT\nIBQfvlT6L7vQIeHbPs8iDCfvv5T5aUbxjJuhi4vo8OaMisEavT1v55nmmrqoojDY\nJ14tpAwqrwKBgBNY4MNt+rCGPwvk6hraKmncfIueBfgKeTVqXzRDdljGgQP5bLdB\nqjL4WOvQK2omWIg/c7t3XmBi0O8rgA10eGXy3PbMrRQpgKH4SbkVJWcT/0xH9Wpk\n9d/HqQ08gBbJpYSmOtJlZcPwH1Iojmne0ZnjZNl7ikQl6hGQ+rbAxNcdAoGABqK/\n+sCQ6jiNdQAp232llZEuKgtTxZvPSYE8pL9H9gFnKurh53pT/qf9yy6+KBXPTcyn\n+09VTrfmCgarCeioYlFELZMrP9E4tbjudthT/Mt6PVvEtt6w3y1hq/I30SIcBb+7\n1C1V0UFv3bo9m2ZuoYHgLKxiyzQDkvS+Tx3F7ScCgYAteKFZ8MgUVaCaUxszcB2C\n4UuuCW69oMoIGEm0YdXMVbKzkpyuwb+/ar583xZFr279L2LoG3L+GzI021exKIwA\n0+f6MVn0lC8TU8oaUum0N3J4fo7sli6mvsogxL5GtVBkBoDxJz95AZiUkhC+/Mhe\nos2iDi+sZ77p5ZEjylSiVQ==\n-----END PRIVATE KEY-----\n",
  "client_email": "node-svc@serious-arcana-325723.iam.gserviceaccount.com",
  "client_id": "109693493777559235589",
  "auth_uri": "https://accounts.google.com/o/oauth2/auth",
  "token_uri": "https://oauth2.googleapis.com/token",
  "auth_provider_x509_cert_url": "https://www.googleapis.com/oauth2/v1/certs",
  "client_x509_cert_url": "https://www.googleapis.com/robot/v1/metadata/x509/node-svc%40serious-arcana-325723.iam.gserviceaccount.com"
}
